---
http_interactions:
- request:
    method: get
    uri: http://api.bestbuy.com/v1/products(longDescription=sennheiser*)?apiKey=2be7f546v4k7f2zdcpgzsqv3&format=json&show=customerReviewAverage,sku,name,salePrice,shortDescription
    body:
      encoding: US-ASCII
      string: ''
    headers:
      User-Agent:
      - Faraday v0.9.2
      Accept-Encoding:
      - gzip;q=1.0,deflate;q=0.6,identity;q=0.3
      Accept:
      - "*/*"
  response:
    status:
      code: 200
      message: OK
    headers:
      X-Mashery-Responder:
      - prod-j-worker-lax-03.mashery.com
      Content-Type:
      - application/json; charset=UTF-8
      Content-Length:
      - '4231'
      Server:
      - thin 1.6.1 codename Death Proof
      Date:
      - Tue, 08 Mar 2016 18:31:12 GMT
      Connection:
      - close
    body:
      encoding: UTF-8
      string: |-
        {
          "from": 1,
          "to": 10,
          "total": 131,
          "currentPage": 1,
          "totalPages": 14,
          "queryTime": "0.010",
          "totalTime": "0.034",
          "partial": false,
          "canonicalUrl": "/v1/products(longDescription=\"sennheiser*\")?show=customerReviewAverage,sku,name,salePrice,shortDescription&format=json&apiKey=2be7f546v4k7f2zdcpgzsqv3",
          "products": [
            {
              "customerReviewAverage": null,
              "sku": 9678429,
              "name": "Sennheiser - Camera-Mount Wireless Microphone System - Black",
              "salePrice": 629.95,
              "shortDescription": "SENNHEISER Camera-Mount Wireless Microphone System: Invisible clip-on microphone; sturdy metal housing; automatic frequency management; easy-to-read illuminated display; 4-level battery indicator; 626-668MHz frequency range"
            },
            {
              "customerReviewAverage": null,
              "sku": 9678447,
              "name": "Sennheiser - Camera-Mount Wireless Microphone System - Black",
              "salePrice": 629.95,
              "shortDescription": "SENNHEISER Camera-Mount Wireless Microphone System: Invisible clip-on microphone; sturdy metal housing; automatic frequency management; easy-to-read illuminated display; 4-level battery indicator; 566-608MHz frequency range"
            },
            {
              "customerReviewAverage": null,
              "sku": 6131454,
              "name": "Sennheiser - CH 650 S 10' Balanced Headphone Cable - Black",
              "salePrice": 239.99,
              "shortDescription": "SENNHEISER CH 650 S 10' Balanced Headphone Cable: Compatible with Sennheiser headphone amplifiers; oxygen-free copper cables; gold-plated contacts; 4pole XLR with 2 mini plugs"
            },
            {
              "customerReviewAverage": null,
              "sku": 6131463,
              "name": "Sennheiser - CH 700 S 10' Balanced Headphone Cable - Black",
              "salePrice": 319.99,
              "shortDescription": "SENNHEISER CH 700 S 10' Balanced Headphone Cable: Compatible with Sennheiser headphones and headphone amplifiers; oxygen-free copper cables with silver coating; gold-plated contacts; 4pole XLR with two 2.5mm jacks"
            },
            {
              "customerReviewAverage": null,
              "sku": 6131445,
              "name": "Sennheiser - CH 800 S 10' Balanced Headphone Cable - Black",
              "salePrice": 379.99,
              "shortDescription": "SENNHEISER CH 800 S 10' Balanced Headphone Cable: Compatible with Sennheiser headphones and headphone amplifiers; oxygen-free copper cables with silver coating; gold-plated contacts; 4pole XLR with 2 ODU connectors"
            },
            {
              "customerReviewAverage": null,
              "sku": 9678438,
              "name": "Sennheiser - Connection Cable for Sennheiser MKE 600 Microphone",
              "salePrice": 19.95,
              "shortDescription": "SENNHEISER Connection Cable for Sennheiser MKE 600 Microphone: Connects Sennheiser MKE 600 microphone to most smartphones; XLR-3 connector-to-3.5mm jack plug; coiled cable"
            },
            {
              "customerReviewAverage": "5.0",
              "sku": 9068146,
              "name": "Sennheiser - CX 1.00 Earbud Headphones - Black",
              "salePrice": 44.95,
              "shortDescription": "SENNHEISER CX 1.00 Earbud Headphones: Noise-blocking design; dynamic transducer principle; ultrasmall design; 3.5mm connector; 3.9' cable; includes 4 sizes of ear adapters"
            },
            {
              "customerReviewAverage": null,
              "sku": 9068191,
              "name": "Sennheiser - CX 1.00 Earbud Headphones - White",
              "salePrice": 44.95,
              "shortDescription": "SENNHEISER CX 1.00 Earbud Headphones: Noise-blocking design; dynamic transducer principle; ultrasmall design; 3.5mm connector; 3.9' cable; includes 4 sizes of ear adapters"
            },
            {
              "customerReviewAverage": "4.0",
              "sku": 9068164,
              "name": "Sennheiser - CX 2.00G Earbud Headphones - Black",
              "salePrice": 54.95,
              "shortDescription": "SENNHEISER CX 2.00G Earbud Headphones: Dynamic transducers; 3-button in-line remote with integrated microphone; 4 ear adapter sizes; 3.9' cable; 3.5mm angled plug"
            },
            {
              "customerReviewAverage": "1.0",
              "sku": 9068155,
              "name": "Sennheiser - CX 2.00G Earbud Headphones - White",
              "salePrice": 54.95,
              "shortDescription": "SENNHEISER CX 2.00G Earbud Headphones: Dynamic transducers; 3-button in-line remote with integrated microphone; 4 ear adapter sizes; 3.9' cable; 3.5mm angled plug"
            }
          ]
        }
    http_version: 
  recorded_at: Tue, 08 Mar 2016 18:31:12 GMT
recorded_with: VCR 3.0.1
